{
	"existing_radius_server_group": "RADIUS_server_set_01",
	
	"existing_TrustSec_servers": [
		{"server_name": "ISE_DC1_VIP_PSN", "IP_addr": "10.10.10.96"},
		{"server_name": "ISE_DC2_VIP_PSN", "IP_addr": "10.10.12.96"}
	],
   
	"new_TrustSec_servers": [
		{ "server_name": "ISE_DCS_VIP_PSN", "IP_addr": "10.10.10.99", "auth_port": "1812", "acct_port": "1813", "key": "xxxxx"},
		{"server_name": "ISE_DCO_VIP_PSN", "IP_addr": "10.10.12.99", "auth_port": "1812", "acct_port": "1813", "key": "xxxxx"}
	],

	"test_user": "user_test", 
	"test_user_password": "xxxxx",

	"CoA_servers": [
		{"IP_addr": "10.10.10.72", "key": "xxxxx"},
		{"IP_addr": "10.10.12.72", "key": "xxxxx"},
		{"IP_addr": "10.10.10.99", "key": "xxxxx"},
		{"IP_addr": "10.10.12.99", "key": "xxxxx"}
    ]
}